{
	"color": 0x214280,
	"addItems": [ "all" ],
	"addBlocks": [ "all", "!ore" ],
	"alloy": {
		"inputs": [ "tungsten", "steel" ],
		"output": 2
	},
    "langs": {
        "material": {
            "en": "Tungstensteel",
            "ru": "вольфрамовой стали",
            "de": "Wolframstahl"
        }
    }
}